…
## Data Exploring and Dataviz

``` r
notfall_dat <- tidytemplate::load_it("data/notfall_dat.Rdata")
```

### Fastest Regions

``` r
notfall_dat %>% 
  arrange(time)
```

    ## # A tibble: 3,435 x 12
    ##    gemeinde  time minutes seconds ten_min_mark fifteen_min_miss status
    ##    <chr>    <dbl>   <dbl>   <dbl>        <dbl>            <dbl> <chr> 
    ##  1 Helmenz~  5.02       5  0.0167           83                7 versc~
    ##  2 Erolzhe~  5.05       5  0.05             84                5 versc~
    ##  3 Merklin~  5.15       5  0.15             87                5 versc~
    ##  4 Wehingen  5.17       5  0.167            81                9 versc~
    ##  5 Arzfeld   5.22       5  0.217            70               14 versc~
    ##  6 Horhaus~  5.27       5  0.267            77               10 versc~
    ##  7 Adenau    5.42       5  0.417            81                8 versc~
    ##  8 Herschb~  5.42       5  0.417            82                7 versc~
    ##  9 Echtern~  5.43       5  0.433            76               11 versc~
    ## 10 Speicher  5.45       5  0.45             83                7 versc~
    ## # ... with 3,425 more rows, and 5 more variables: rtw_16 <dbl>,
    ## #   nef_16 <dbl>, rtw_17 <dbl>, nef_17 <dbl>, distance_mna <dbl>

### Slowest Regions

``` r
notfall_dat %>% 
  arrange(desc(time))
```

    ## # A tibble: 3,435 x 12
    ##    gemeinde  time minutes seconds ten_min_mark fifteen_min_miss status
    ##    <chr>    <dbl>   <dbl>   <dbl>        <dbl>            <dbl> <chr> 
    ##  1 Dedenba~  37.8      37  0.833             2               17 verbe~
    ##  2 Sevenig~  33.9      33  0.933             0               87 verbe~
    ##  3 Sauerth~  30.6      30  0.55             24               13 verbe~
    ##  4 Lierfeld  29.0      28  0.967            21               56 verbe~
    ##  5 Fretten~  26.5      26  0.517             2               32 verbe~
    ##  6 Lottste~  26.4      26  0.417             0              100 verbe~
    ##  7 Gebroth   25.4      25  0.45              0               97 verbe~
    ##  8 Genting~  25.4      25  0.367             0              100 versc~
    ##  9 Heiligk~  24.0      24  0.0167            0               99 versc~
    ## 10 Kellenb~  23.9      23  0.933             2               75 verbe~
    ## # ... with 3,425 more rows, and 5 more variables: rtw_16 <dbl>,
    ## #   nef_16 <dbl>, rtw_17 <dbl>, nef_17 <dbl>, distance_mna <dbl>
…
